{
    "coord": {
        "lon": 28.05,
        "lat": -26.21
    },
    "weather": [
        {
            "id": 800,
            "main": "Clear",
            "description": "clear sky",
            "icon": "01d"
        }
    ],
    "base": "stations",
    "main": {
        "temp": 303.87,
        "pressure": 1021,
        "humidity": 18,
        "temp_min": 302.59,
        "temp_max": 304.82
    },
    "visibility": 10000,
    "wind": {
        "speed": 6.2,
        "deg": 330
    },
    "clouds": {
        "all": 0
    },
    "dt": 1575197526,
    "sys": {
        "type": 1,
        "id": 1935,
        "country": "ZA",
        "sunrise": 1575169650,
        "sunset": 1575218773
    },
    "timezone": 7200,
    "id": 993800,
    "name": "Johannesburg",
    "cod": 200
}
